﻿Time:year=2018,month=4,date=16,hour=12,minute=0;Type:Runs;Text:;
"Run"	"Sample"	"Project"	"Experiment Type"	"Pipeline Version"
"ERR260494"	"ERS234284"	"ERP001956"	"metagenomic"	"1.0"
"ERR262956"	"ERS234296"	"ERP001956"	"metagenomic"	"1.0"
"ERR260505"	"ERS234302"	"ERP001956"	"metagenomic"	"1.0"
"ERR260476"	"ERS234261"	"ERP001956"	"metagenomic"	"1.0"
"ERR260499"	"ERS234292"	"ERP001956"	"metagenomic"	"1.0"
"ERR262949"	"ERS234281"	"ERP001956"	"metagenomic"	"1.0"
"ERR260500"	"ERS234293"	"ERP001956"	"metagenomic"	"1.0"
"ERR260498"	"ERS234291"	"ERP001956"	"metagenomic"	"1.0"
"ERR262955"	"ERS234295"	"ERP001956"	"metagenomic"	"1.0"
"ERR262943"	"ERS234264"	"ERP001956"	"metagenomic"	"1.0"
"ERR262953"	"ERS234294"	"ERP001956"	"metagenomic"	"1.0"
"ERR260483"	"ERS234270"	"ERP001956"	"metagenomic"	"1.0"
"ERR262950"	"ERS234282"	"ERP001956"	"metagenomic"	"1.0"
"ERR262944"	"ERS237592"	"ERP001956"	"metagenomic"	"1.0"
"ERR260491"	"ERS234279"	"ERP001956"	"metagenomic"	"1.0"
"ERR262958"	"ERS234300"	"ERP001956"	"metagenomic"	"1.0"
"ERR260501"	"ERS234297"	"ERP001956"	"metagenomic"	"1.0"
"ERR056996"	"ERS075411"	"ERP001038"	"metagenomic"	"1.0"
"ERR260484"	"ERS234271"	"ERP001956"	"metagenomic"	"1.0"
"ERR260489"	"ERS234277"	"ERP001956"	"metagenomic"	"1.0"
"ERR056991"	"ERS075406"	"ERP001038"	"metagenomic"	"1.0"
"ERR056989"	"ERS075404"	"ERP001038"	"metagenomic"	"1.0"
"ERR262956"	"ERS234296"	"ERP001956"	"metagenomic"	"1.0"
"ERR056995"	"ERS075410"	"ERP001038"	"metagenomic"	"1.0"
"ERR056995"	"ERS075410"	"ERP001038"	"metagenomic"	"1.0"
"ERR056998"	"ERS075413"	"ERP001038"	"metagenomic"	"1.0"
"ERR262945"	"ERS234267"	"ERP001956"	"metagenomic"	"1.0"
"ERR262952"	"ERS234290"	"ERP001956"	"metagenomic"	"1.0"
"ERR260477"	"ERS234262"	"ERP001956"	"metagenomic"	"1.0"
"ERR262947"	"ERS234268"	"ERP001956"	"metagenomic"	"1.0"
"ERR262942"	"ERS234261"	"ERP001956"	"metagenomic"	"1.0"
"ERR262940"	"ERS234260"	"ERP001956"	"metagenomic"	"1.0"
"ERR262946"	"ERS234267"	"ERP001956"	"metagenomic"	"1.0"
"ERR260482"	"ERS234269"	"ERP001956"	"metagenomic"	"1.0"
"ERR260497"	"ERS234289"	"ERP001956"	"metagenomic"	"1.0"
"ERR262957"	"ERS234298"	"ERP001956"	"metagenomic"	"1.0"
"ERR262952"	"ERS234290"	"ERP001956"	"metagenomic"	"1.0"
"ERR260481"	"ERS234265"	"ERP001956"	"metagenomic"	"1.0"
"ERR260500"	"ERS234293"	"ERP001956"	"metagenomic"	"1.0"
"ERR056997"	"ERS075412"	"ERP001038"	"metagenomic"	"1.0"
"ERR262953"	"ERS234294"	"ERP001956"	"metagenomic"	"1.0"
"ERR260503"	"ERS234300"	"ERP001956"	"metagenomic"	"1.0"
"ERR262951"	"ERS234286"	"ERP001956"	"metagenomic"	"1.0"
"ERR262941"	"ERS234260"	"ERP001956"	"metagenomic"	"1.0"
"ERR260487"	"ERS234274"	"ERP001956"	"metagenomic"	"1.0"
"ERR056993"	"ERS075408"	"ERP001038"	"metagenomic"	"1.0"
"ERR260489"	"ERS234277"	"ERP001956"	"metagenomic"	"1.0"
"ERR262948"	"ERS234276"	"ERP001956"	"metagenomic"	"1.0"
"ERR260477"	"ERS234262"	"ERP001956"	"metagenomic"	"1.0"
"ERR260495"	"ERS234285"	"ERP001956"	"metagenomic"	"1.0"
"ERR260506"	"ERS234303"	"ERP001956"	"metagenomic"	"1.0"
"ERR057000"	"ERS075415"	"ERP001038"	"metagenomic"	"1.0"
"ERR262955"	"ERS234295"	"ERP001956"	"metagenomic"	"1.0"
"ERR262959"	"ERS234302"	"ERP001956"	"metagenomic"	"1.0"
"ERR056996"	"ERS075411"	"ERP001038"	"metagenomic"	"1.0"
"ERR260498"	"ERS234291"	"ERP001956"	"metagenomic"	"1.0"
"ERR260493"	"ERS234283"	"ERP001956"	"metagenomic"	"1.0"
"ERR056999"	"ERS075414"	"ERP001038"	"metagenomic"	"1.0"
"ERR260505"	"ERS234302"	"ERP001956"	"metagenomic"	"1.0"
"ERR260504"	"ERS234301"	"ERP001956"	"metagenomic"	"1.0"
"ERR260497"	"ERS234289"	"ERP001956"	"metagenomic"	"1.0"
"ERR260480"	"ERS234264"	"ERP001956"	"metagenomic"	"1.0"
"ERR262944"	"ERS237592"	"ERP001956"	"metagenomic"	"1.0"
"ERR260506"	"ERS234303"	"ERP001956"	"metagenomic"	"1.0"
"ERR260492"	"ERS234280"	"ERP001956"	"metagenomic"	"1.0"
"ERR262951"	"ERS234286"	"ERP001956"	"metagenomic"	"1.0"
"ERR260486"	"ERS234273"	"ERP001956"	"metagenomic"	"1.0"
"ERR056998"	"ERS075413"	"ERP001038"	"metagenomic"	"1.0"
"ERR260488"	"ERS234275"	"ERP001956"	"metagenomic"	"1.0"
"ERR057000"	"ERS075415"	"ERP001038"	"metagenomic"	"1.0"
"ERR262943"	"ERS234264"	"ERP001956"	"metagenomic"	"1.0"
"ERR260478"	"ERS234262"	"ERP001956"	"metagenomic"	"1.0"
"ERR260495"	"ERS234285"	"ERP001956"	"metagenomic"	"1.0"
"ERR056994"	"ERS075409"	"ERP001038"	"metagenomic"	"1.0"
"ERR262950"	"ERS234282"	"ERP001956"	"metagenomic"	"1.0"
"ERR260492"	"ERS234280"	"ERP001956"	"metagenomic"	"1.0"
"ERR260487"	"ERS234274"	"ERP001956"	"metagenomic"	"1.0"
"ERR262945"	"ERS234267"	"ERP001956"	"metagenomic"	"1.0"
"ERR056990"	"ERS075405"	"ERP001038"	"metagenomic"	"1.0"
"ERR056990"	"ERS075405"	"ERP001038"	"metagenomic"	"1.0"
"ERR262948"	"ERS234276"	"ERP001956"	"metagenomic"	"1.0"
"ERR260496"	"ERS234287"	"ERP001956"	"metagenomic"	"1.0"
"ERR056994"	"ERS075409"	"ERP001038"	"metagenomic"	"1.0"
"ERR262940"	"ERS234260"	"ERP001956"	"metagenomic"	"1.0"
"ERR056992"	"ERS075407"	"ERP001038"	"metagenomic"	"1.0"
"ERR260491"	"ERS234279"	"ERP001956"	"metagenomic"	"1.0"
"ERR262939"	"ERS234259"	"ERP001956"	"metagenomic"	"1.0"
"ERR260501"	"ERS234297"	"ERP001956"	"metagenomic"	"1.0"
"ERR260478"	"ERS234262"	"ERP001956"	"metagenomic"	"1.0"
"ERR260476"	"ERS234261"	"ERP001956"	"metagenomic"	"1.0"
"ERR260479"	"ERS234263"	"ERP001956"	"metagenomic"	"1.0"
"ERR262949"	"ERS234281"	"ERP001956"	"metagenomic"	"1.0"
"ERR262938"	"ERS234259"	"ERP001956"	"metagenomic"	"1.0"
"ERR262947"	"ERS234268"	"ERP001956"	"metagenomic"	"1.0"
"ERR260485"	"ERS234272"	"ERP001956"	"metagenomic"	"1.0"
"ERR260485"	"ERS234272"	"ERP001956"	"metagenomic"	"1.0"
"ERR260490"	"ERS234278"	"ERP001956"	"metagenomic"	"1.0"
"ERR260493"	"ERS234283"	"ERP001956"	"metagenomic"	"1.0"
"ERR056997"	"ERS075412"	"ERP001038"	"metagenomic"	"1.0"
"ERR260502"	"ERS234299"	"ERP001956"	"metagenomic"	"1.0"
"ERR056991"	"ERS075406"	"ERP001038"	"metagenomic"	"1.0"
"ERR260479"	"ERS234263"	"ERP001956"	"metagenomic"	"1.0"
"ERR260488"	"ERS234275"	"ERP001956"	"metagenomic"	"1.0"
"ERR260502"	"ERS234299"	"ERP001956"	"metagenomic"	"1.0"
"ERR260503"	"ERS234300"	"ERP001956"	"metagenomic"	"1.0"
"ERR260480"	"ERS234264"	"ERP001956"	"metagenomic"	"1.0"
"ERR260482"	"ERS234269"	"ERP001956"	"metagenomic"	"1.0"
"ERR056999"	"ERS075414"	"ERP001038"	"metagenomic"	"1.0"
"ERR260504"	"ERS234301"	"ERP001956"	"metagenomic"	"1.0"
"ERR260494"	"ERS234284"	"ERP001956"	"metagenomic"	"1.0"
"ERR262957"	"ERS234298"	"ERP001956"	"metagenomic"	"1.0"
"ERR260484"	"ERS234271"	"ERP001956"	"metagenomic"	"1.0"
"ERR260496"	"ERS234287"	"ERP001956"	"metagenomic"	"1.0"
"ERR262938"	"ERS234259"	"ERP001956"	"metagenomic"	"1.0"
"ERR262959"	"ERS234302"	"ERP001956"	"metagenomic"	"1.0"
"ERR262958"	"ERS234300"	"ERP001956"	"metagenomic"	"1.0"
"ERR260499"	"ERS234292"	"ERP001956"	"metagenomic"	"1.0"
"ERR260486"	"ERS234273"	"ERP001956"	"metagenomic"	"1.0"
"ERR262954"	"ERS234295"	"ERP001956"	"metagenomic"	"1.0"
"ERR056993"	"ERS075408"	"ERP001038"	"metagenomic"	"1.0"
"ERR260483"	"ERS234270"	"ERP001956"	"metagenomic"	"1.0"
"ERR260481"	"ERS234265"	"ERP001956"	"metagenomic"	"1.0"
"ERR262954"	"ERS234295"	"ERP001956"	"metagenomic"	"1.0"
"ERR260490"	"ERS234278"	"ERP001956"	"metagenomic"	"1.0"
"ERR262942"	"ERS234261"	"ERP001956"	"metagenomic"	"1.0"
"ERR056989"	"ERS075404"	"ERP001038"	"metagenomic"	"1.0"
