"id"	"freq"	"family"	"genus"	"species"	"taxonomy"
"1"	"252003"	1563	""	""	""	"unknown"
"2"	"838066"	1456	"Legionellaceae"	"Legionella"	""	"Legionella"
"3"	"1107824"	1119	"Coxiellaceae"	""	""	"Coxiellaceae"
"4"	"327078"	911	"Coxiellaceae"	""	""	"Coxiellaceae"
"5"	"575450"	825	""	""	""	"unknown"
"6"	"353731"	818	"Coxiellaceae"	""	""	"Coxiellaceae"
"7"	"4344815"	763	""	""	""	"unknown"
"8"	"514449"	755	"Coxiellaceae"	""	""	"Coxiellaceae"
"9"	"897411"	687	"Legionellaceae"	"Legionella"	""	"Legionella"
"10"	"894654"	618	"Legionellaceae"	""	""	"Legionellaceae"
"11"	"1011361"	592	"Legionellaceae"	"Legionella"	""	"Legionella"
"12"	"237976"	495	"Coxiellaceae"	"Rickettsiella"	""	"Rickettsiella"
"13"	"1111525"	468	"Coxiellaceae"	""	""	"Coxiellaceae"
"14"	"315994"	466	"Legionellaceae"	""	""	"Legionellaceae"
"15"	"593817"	459	"Endoecteinascidiaceae"	""	""	"Endoecteinascidiaceae"
"16"	"906595"	451	"Legionellaceae"	""	""	"Legionellaceae"
"17"	"99390"	426	"Coxiellaceae"	""	""	"Coxiellaceae"
"18"	"4460855"	413	""	""	""	"unknown"
"19"	"579691"	413	"Legionellaceae"	"Legionella"	""	"Legionella"
"20"	"524595"	404	"Coxiellaceae"	"Rickettsiella"	""	"Rickettsiella"
"21"	"155317"	396	""	""	""	"unknown"
"22"	"4399524"	395	""	""	""	"unknown"
"23"	"813553"	395	""	""	""	"unknown"
"24"	"562800"	394	"Coxiellaceae"	""	""	"Coxiellaceae"
"25"	"1099157"	371	"Coxiellaceae"	"Aquicella"	""	"Aquicella"
"26"	"349901"	362	"Coxiellaceae"	"Rickettsiella"	""	"Rickettsiella"
"27"	"45765"	362	""	""	""	"unknown"
"28"	"830392"	359	"Coxiellaceae"	""	""	"Coxiellaceae"
"29"	"237689"	357	"Coxiellaceae"	""	""	"Coxiellaceae"
"30"	"821725"	354	"Coxiellaceae"	"Aquicella"	""	"Aquicella"
"31"	"543739"	349	"Coxiellaceae"	"Aquicella"	""	"Aquicella"
"32"	"813548"	347	"Legionellaceae"	"Legionella"	""	"Legionella"
"33"	"905642"	332	"Coxiellaceae"	""	""	"Coxiellaceae"
"34"	"881104"	329	"Legionellaceae"	"Legionella"	""	"Legionella"
"35"	"4308573"	322	"Coxiellaceae"	"Aquicella"	""	"Aquicella"
"36"	"279180"	321	""	""	""	"unknown"
"37"	"938078"	321	"Francisellaceae"	""	""	"Francisellaceae"
"38"	"147181"	318	"Legionellaceae"	"Legionella"	""	"Legionella"
"39"	"156946"	315	""	""	""	"unknown"
"40"	"518474"	310	"Legionellaceae"	"Legionella"	""	"Legionella"
"41"	"610433"	305	"Legionellaceae"	""	""	"Legionellaceae"
"42"	"47013"	304	"Coxiellaceae"	""	""	"Coxiellaceae"
"43"	"251636"	289	"Coxiellaceae"	""	""	"Coxiellaceae"
"44"	"4316017"	289	"Coxiellaceae"	""	""	"Coxiellaceae"
"45"	"646801"	287	"Coxiellaceae"	"Aquicella"	""	"Aquicella"
"46"	"1047298"	283	"Coxiellaceae"	""	""	"Coxiellaceae"
"47"	"587874"	282	"Coxiellaceae"	""	""	"Coxiellaceae"
"48"	"137191"	280	"Coxiellaceae"	""	""	"Coxiellaceae"
"49"	"555059"	271	"Coxiellaceae"	""	""	"Coxiellaceae"
"50"	"218114"	268	"Coxiellaceae"	""	""	"Coxiellaceae"
"51"	"331322"	255	"Legionellaceae"	""	""	"Legionellaceae"
"52"	"2954732"	254	"Coxiellaceae"	""	""	"Coxiellaceae"
"53"	"511452"	254	"Coxiellaceae"	""	""	"Coxiellaceae"
"54"	"4329246"	252	"Coxiellaceae"	""	""	"Coxiellaceae"
"55"	"925952"	247	"Coxiellaceae"	"Aquicella"	""	"Aquicella"
"56"	"1064392"	244	"Coxiellaceae"	"Rickettsiella"	""	"Rickettsiella"
"57"	"3555658"	244	""	""	""	"unknown"
"58"	"552844"	242	"Coxiellaceae"	"Aquicella"	""	"Aquicella"
"59"	"1009801"	241	"Legionellaceae"	""	""	"Legionellaceae"
"60"	"318134"	241	""	""	""	"unknown"
"61"	"679689"	238	"Coxiellaceae"	""	""	"Coxiellaceae"
"62"	"4384753"	234	"Coxiellaceae"	"Aquicella"	""	"Aquicella"
"63"	"22253"	233	"Coxiellaceae"	""	""	"Coxiellaceae"
"64"	"1108643"	231	"Legionellaceae"	""	""	"Legionellaceae"
"65"	"546723"	229	"Legionellaceae"	""	""	"Legionellaceae"
"66"	"549939"	229	"Francisellaceae"	""	""	"Francisellaceae"
"67"	"839471"	227	"Coxiellaceae"	""	""	"Coxiellaceae"
"68"	"336069"	226	""	""	""	"unknown"
"69"	"983889"	226	"Legionellaceae"	"Tatlockia"	""	"Tatlockia"
"70"	"172172"	225	"Coxiellaceae"	""	""	"Coxiellaceae"
"71"	"4476001"	224	""	""	""	"unknown"
"72"	"587687"	218	"Coxiellaceae"	"Aquicella"	""	"Aquicella"
"73"	"251664"	217	"Coxiellaceae"	""	""	"Coxiellaceae"
"74"	"4313533"	215	""	""	""	"unknown"
"75"	"559606"	215	"Legionellaceae"	""	""	"Legionellaceae"
"76"	"806474"	215	""	""	""	"unknown"
"77"	"36221"	214	"Coxiellaceae"	""	""	"Coxiellaceae"
"78"	"574974"	213	"Coxiellaceae"	"Aquicella"	""	"Aquicella"
"79"	"160953"	210	"Coxiellaceae"	""	""	"Coxiellaceae"
"80"	"748380"	209	"Legionellaceae"	""	""	"Legionellaceae"
"81"	"8028"	209	"Coxiellaceae"	"Rickettsiella"	""	"Rickettsiella"
"82"	"419180"	207	"Coxiellaceae"	"Aquicella"	""	"Aquicella"
"83"	"678291"	207	"Coxiellaceae"	"Rickettsiella"	""	"Rickettsiella"
"84"	"213493"	205	""	""	""	"unknown"
"85"	"648354"	204	"Coxiellaceae"	""	""	"Coxiellaceae"
"86"	"582149"	198	"Coxiellaceae"	""	""	"Coxiellaceae"
"87"	"1564851"	197	"Legionellaceae"	""	""	"Legionellaceae"
"88"	"1119658"	196	"Legionellaceae"	""	""	"Legionellaceae"
"89"	"153948"	196	"Legionellaceae"	""	""	"Legionellaceae"
"90"	"156907"	186	"Coxiellaceae"	""	""	"Coxiellaceae"
"91"	"368366"	186	"Coxiellaceae"	"Aquicella"	""	"Aquicella"
"92"	"317765"	185	"Francisellaceae"	""	""	"Francisellaceae"
"93"	"4355317"	185	"Coxiellaceae"	""	""	"Coxiellaceae"
"94"	"999870"	185	"Coxiellaceae"	"Aquicella"	""	"Aquicella"
"95"	"250187"	184	""	""	""	"unknown"
"96"	"266984"	184	"Coxiellaceae"	"Aquicella"	""	"Aquicella"
"97"	"311942"	184	"Legionellaceae"	""	""	"Legionellaceae"
"98"	"511371"	183	"Coxiellaceae"	"Aquicella"	""	"Aquicella"
"99"	"101218"	179	"Coxiellaceae"	""	""	"Coxiellaceae"
"100"	"227562"	178	"Coxiellaceae"	""	""	"Coxiellaceae"
"101"	"810483"	176	"Coxiellaceae"	""	""	"Coxiellaceae"
"102"	"282458"	174	"Coxiellaceae"	""	""	"Coxiellaceae"
"103"	"584468"	174	"Legionellaceae"	""	""	"Legionellaceae"
"104"	"136741"	170	""	""	""	"unknown"
"105"	"974116"	170	"Legionellaceae"	"Legionella"	""	"Legionella"
"106"	"794581"	164	"Coxiellaceae"	""	""	"Coxiellaceae"
"107"	"342789"	163	"Coxiellaceae"	""	""	"Coxiellaceae"
"108"	"247080"	162	"Coxiellaceae"	"Aquicella"	""	"Aquicella"
"109"	"313826"	160	"Coxiellaceae"	""	""	"Coxiellaceae"
"110"	"3471582"	160	"Coxiellaceae"	"Aquicella"	""	"Aquicella"
"111"	"152386"	159	"Legionellaceae"	""	""	"Legionellaceae"
"112"	"1104941"	158	"Coxiellaceae"	""	""	"Coxiellaceae"
"113"	"210450"	158	"Coxiellaceae"	"Aquicella"	""	"Aquicella"
"114"	"545550"	158	""	""	""	"unknown"
"115"	"576671"	156	"Coxiellaceae"	"Rickettsiella"	""	"Rickettsiella"
"116"	"71246"	155	"Coxiellaceae"	""	""	"Coxiellaceae"
"117"	"833122"	154	""	""	""	"unknown"
"118"	"1064003"	151	""	""	""	"unknown"
"119"	"1115576"	151	"Coxiellaceae"	""	""	"Coxiellaceae"
"120"	"633998"	150	"Coxiellaceae"	"Aquicella"	""	"Aquicella"
"121"	"541438"	146	"Coxiellaceae"	""	""	"Coxiellaceae"
"122"	"760704"	143	"Legionellaceae"	""	""	"Legionellaceae"
"123"	"4361686"	142	""	""	""	"unknown"
"124"	"792045"	142	"Coxiellaceae"	""	""	"Coxiellaceae"
"125"	"575576"	141	"Legionellaceae"	"Legionella"	"pneumophila"	"L. pneumophila"
"126"	"362533"	137	"Coxiellaceae"	"Aquicella"	""	"Aquicella"
"127"	"100054"	136	""	""	""	"unknown"
"128"	"270320"	136	"Legionellaceae"	""	""	"Legionellaceae"
"129"	"171478"	134	""	""	""	"unknown"
"130"	"3868691"	133	"Coxiellaceae"	"Aquicella"	""	"Aquicella"
"131"	"144057"	131	"Francisellaceae"	"Francisella"	""	"Francisella"
"132"	"840668"	131	"Legionellaceae"	""	""	"Legionellaceae"
"133"	"145455"	130	"Legionellaceae"	"Legionella"	""	"Legionella"
"134"	"4315254"	127	"Legionellaceae"	""	""	"Legionellaceae"
"135"	"347934"	126	"Coxiellaceae"	""	""	"Coxiellaceae"
"136"	"7932"	126	"Legionellaceae"	"Legionella"	""	"Legionella"
"137"	"897625"	125	"Coxiellaceae"	""	""	"Coxiellaceae"
"138"	"1106547"	122	""	""	""	"unknown"
"139"	"133195"	121	"Coxiellaceae"	"Aquicella"	""	"Aquicella"
"140"	"499851"	121	"Legionellaceae"	""	""	"Legionellaceae"
"141"	"557801"	121	"Coxiellaceae"	""	""	"Coxiellaceae"
"142"	"1009482"	120	"Legionellaceae"	"Legionella"	""	"Legionella"
"143"	"667148"	119	""	""	""	"unknown"
"144"	"4314785"	118	"Coxiellaceae"	""	""	"Coxiellaceae"
"145"	"165688"	116	""	""	""	"unknown"
"146"	"827708"	115	""	""	""	"unknown"
"147"	"1054903"	114	"Coxiellaceae"	""	""	"Coxiellaceae"
"148"	"225862"	114	""	""	""	"unknown"
"149"	"612198"	114	""	""	""	"unknown"
"150"	"311195"	112	""	""	""	"unknown"
"151"	"233204"	111	"Coxiellaceae"	""	""	"Coxiellaceae"
"152"	"269117"	111	"Coxiellaceae"	""	""	"Coxiellaceae"
"153"	"884762"	110	"Coxiellaceae"	"Aquicella"	""	"Aquicella"
"154"	"1061947"	109	"Coxiellaceae"	""	""	"Coxiellaceae"
"155"	"229691"	109	"Coxiellaceae"	""	""	"Coxiellaceae"
"156"	"4389076"	109	"Coxiellaceae"	""	""	"Coxiellaceae"
"157"	"1072484"	108	""	""	""	"unknown"
"158"	"236913"	108	"Legionellaceae"	"Legionella"	"dresdenensis"	"L. dresdenensis"
"159"	"572561"	108	"Legionellaceae"	""	""	"Legionellaceae"
"160"	"3712726"	106	"Coxiellaceae"	""	""	"Coxiellaceae"
"161"	"500261"	106	"Legionellaceae"	"Tatlockia"	""	"Tatlockia"
"162"	"354403"	105	"Coxiellaceae"	""	""	"Coxiellaceae"
"163"	"850214"	105	"Coxiellaceae"	""	""	"Coxiellaceae"
"164"	"1097165"	104	"Legionellaceae"	""	""	"Legionellaceae"
"165"	"326155"	104	"Coxiellaceae"	""	""	"Coxiellaceae"
"166"	"1106379"	102	"Coxiellaceae"	"Aquicella"	""	"Aquicella"
"167"	"3059360"	102	"Coxiellaceae"	""	""	"Coxiellaceae"
"168"	"168390"	101	"Legionellaceae"	"Legionella"	""	"Legionella"
"169"	"564504"	101	"Coxiellaceae"	""	""	"Coxiellaceae"
"170"	"723968"	101	"Legionellaceae"	"Tatlockia"	""	"Tatlockia"
"171"	"149607"	100	""	""	""	"unknown"
"172"	"531332"	100	""	""	""	"unknown"
"173"	"824867"	100	"Coxiellaceae"	"Aquicella"	""	"Aquicella"
"174"	"511763"	99	"Coxiellaceae"	"Aquicella"	""	"Aquicella"
"175"	"7908"	98	"Legionellaceae"	"Legionella"	"pneumophila"	"L. pneumophila"
"176"	"765491"	96	"Legionellaceae"	""	""	"Legionellaceae"
"177"	"696086"	95	"Legionellaceae"	""	""	"Legionellaceae"
"178"	"319778"	94	"Coxiellaceae"	""	""	"Coxiellaceae"
"179"	"4425434"	94	"Coxiellaceae"	""	""	"Coxiellaceae"
"180"	"539280"	94	""	""	""	"unknown"
"181"	"652877"	94	"Coxiellaceae"	"Aquicella"	""	"Aquicella"
"182"	"132329"	93	"Coxiellaceae"	"Aquicella"	""	"Aquicella"
"183"	"21751"	93	"Legionellaceae"	"Legionella"	""	"Legionella"
"184"	"4296691"	93	"Legionellaceae"	""	""	"Legionellaceae"
"185"	"812281"	92	"Coxiellaceae"	"Aquicella"	""	"Aquicella"
"186"	"1112694"	91	"Coxiellaceae"	""	""	"Coxiellaceae"
"187"	"239517"	89	"Coxiellaceae"	""	""	"Coxiellaceae"
"188"	"279470"	89	"Coxiellaceae"	""	""	"Coxiellaceae"
"189"	"320125"	89	"Coxiellaceae"	"Aquicella"	""	"Aquicella"
"190"	"346519"	89	"Coxiellaceae"	""	""	"Coxiellaceae"
"191"	"4470897"	89	"Coxiellaceae"	""	""	"Coxiellaceae"
"192"	"542155"	89	"Coxiellaceae"	"Aquicella"	""	"Aquicella"
"193"	"1104749"	87	"Coxiellaceae"	""	""	"Coxiellaceae"
"194"	"4469855"	87	"Coxiellaceae"	"Aquicella"	""	"Aquicella"
"195"	"828582"	87	"Coxiellaceae"	""	""	"Coxiellaceae"
"196"	"977027"	87	"Coxiellaceae"	""	""	"Coxiellaceae"
"197"	"144674"	86	"Francisellaceae"	""	""	"Francisellaceae"
"198"	"227980"	86	"Coxiellaceae"	""	""	"Coxiellaceae"
"199"	"4326776"	86	"Coxiellaceae"	"Aquicella"	""	"Aquicella"
"200"	"629995"	82	"Legionellaceae"	""	""	"Legionellaceae"
"201"	"146022"	81	"Legionellaceae"	""	""	"Legionellaceae"
"202"	"173398"	81	"Legionellaceae"	"Legionella"	""	"Legionella"
"203"	"1760355"	81	"Coxiellaceae"	""	""	"Coxiellaceae"
"204"	"824467"	81	"Coxiellaceae"	"Aquicella"	""	"Aquicella"
"205"	"321458"	78	"Coxiellaceae"	"Aquicella"	""	"Aquicella"
"206"	"333779"	78	"Coxiellaceae"	"Aquicella"	""	"Aquicella"
"207"	"4256112"	78	""	""	""	"unknown"
"208"	"523629"	78	"Coxiellaceae"	""	""	"Coxiellaceae"
"209"	"535470"	78	"Coxiellaceae"	""	""	"Coxiellaceae"
"210"	"78950"	78	"Coxiellaceae"	"Aquicella"	""	"Aquicella"
"211"	"165338"	77	"Legionellaceae"	"Legionella"	""	"Legionella"
"212"	"233654"	77	"Coxiellaceae"	""	""	"Coxiellaceae"
"213"	"4386579"	77	"Legionellaceae"	""	""	"Legionellaceae"
"214"	"529786"	77	"Coxiellaceae"	"Aquicella"	""	"Aquicella"
"215"	"74504"	77	"Coxiellaceae"	""	""	"Coxiellaceae"
"216"	"918237"	77	""	""	""	"unknown"
"217"	"1106213"	76	""	""	""	"unknown"
"218"	"4335789"	76	"Legionellaceae"	"Tatlockia"	""	"Tatlockia"
"219"	"4359891"	76	"Coxiellaceae"	"Aquicella"	""	"Aquicella"
"220"	"531624"	76	"Coxiellaceae"	""	""	"Coxiellaceae"
"221"	"312981"	75	"Legionellaceae"	""	""	"Legionellaceae"
"222"	"538006"	75	"Legionellaceae"	""	""	"Legionellaceae"
"223"	"1018671"	74	"Coxiellaceae"	""	""	"Coxiellaceae"
"224"	"1119239"	73	"Coxiellaceae"	"Aquicella"	""	"Aquicella"
"225"	"4353041"	73	""	""	""	"unknown"
"226"	"223370"	72	"Legionellaceae"	""	""	"Legionellaceae"
"227"	"525676"	72	""	""	""	"unknown"
"228"	"1952353"	71	"Legionellaceae"	""	""	"Legionellaceae"
"229"	"272956"	71	""	""	""	"unknown"
"230"	"536873"	71	"Coxiellaceae"	""	""	"Coxiellaceae"
"231"	"574274"	71	"Coxiellaceae"	""	""	"Coxiellaceae"
"232"	"545909"	70	"Coxiellaceae"	""	""	"Coxiellaceae"
"233"	"234350"	69	"Coxiellaceae"	""	""	"Coxiellaceae"
"234"	"546426"	69	"Coxiellaceae"	""	""	"Coxiellaceae"
"235"	"7958"	69	"Legionellaceae"	"Legionella"	""	"Legionella"
"236"	"4438593"	68	"Endoecteinascidiaceae"	""	""	"Endoecteinascidiaceae"
"237"	"4484270"	68	""	""	""	"unknown"
"238"	"515598"	68	"Coxiellaceae"	""	""	"Coxiellaceae"
"239"	"985282"	68	"Coxiellaceae"	""	""	"Coxiellaceae"
"240"	"2522317"	67	"Coxiellaceae"	""	""	"Coxiellaceae"
"241"	"760885"	67	"Coxiellaceae"	""	""	"Coxiellaceae"
"242"	"847864"	67	"Coxiellaceae"	""	""	"Coxiellaceae"
"243"	"269030"	66	"Coxiellaceae"	""	""	"Coxiellaceae"
"244"	"535823"	66	"Legionellaceae"	""	""	"Legionellaceae"
"245"	"583738"	66	"Coxiellaceae"	""	""	"Coxiellaceae"
"246"	"337388"	65	"Coxiellaceae"	""	""	"Coxiellaceae"
"247"	"4213396"	65	""	""	""	"unknown"
"248"	"565484"	65	"Coxiellaceae"	""	""	"Coxiellaceae"
"249"	"1111415"	64	""	""	""	"unknown"
"250"	"167895"	64	""	""	""	"unknown"
"251"	"300169"	64	"Legionellaceae"	""	""	"Legionellaceae"
"252"	"4372447"	64	"Coxiellaceae"	""	""	"Coxiellaceae"
"253"	"1094706"	63	"Coxiellaceae"	"Aquicella"	""	"Aquicella"
"254"	"4381254"	63	"Coxiellaceae"	"Aquicella"	""	"Aquicella"
"255"	"883557"	63	"Legionellaceae"	"Legionella"	""	"Legionella"
"256"	"279663"	62	"Coxiellaceae"	""	""	"Coxiellaceae"
"257"	"314835"	62	""	""	""	"unknown"
"258"	"4313319"	62	"Coxiellaceae"	"Aquicella"	""	"Aquicella"
"259"	"526380"	62	"Coxiellaceae"	"Aquicella"	""	"Aquicella"
"260"	"4393554"	61	"Legionellaceae"	"Legionella"	""	"Legionella"
"261"	"4419132"	61	"Coxiellaceae"	"Aquicella"	""	"Aquicella"
"262"	"633535"	60	"Coxiellaceae"	"Aquicella"	""	"Aquicella"
"263"	"838856"	60	"Coxiellaceae"	"Aquicella"	""	"Aquicella"
"264"	"1115022"	59	"Coxiellaceae"	""	""	"Coxiellaceae"
"265"	"4314931"	59	"Coxiellaceae"	""	""	"Coxiellaceae"
"266"	"1552894"	58	"Legionellaceae"	""	""	"Legionellaceae"
"267"	"237290"	58	"Coxiellaceae"	"Aquicella"	""	"Aquicella"
"268"	"522337"	58	"Legionellaceae"	""	""	"Legionellaceae"
"269"	"613832"	58	"Coxiellaceae"	""	""	"Coxiellaceae"
"270"	"635847"	58	"Coxiellaceae"	""	""	"Coxiellaceae"
"271"	"691392"	58	"Francisellaceae"	""	""	"Francisellaceae"
"272"	"298170"	57	"Legionellaceae"	"Legionella"	""	"Legionella"
"273"	"306074"	57	"Legionellaceae"	""	""	"Legionellaceae"
"274"	"99452"	57	"Legionellaceae"	"Legionella"	"jeonii"	"L. jeonii"
"275"	"246307"	56	"Coxiellaceae"	""	""	"Coxiellaceae"
"276"	"278617"	56	"Legionellaceae"	""	""	"Legionellaceae"
"277"	"4432355"	56	""	""	""	"unknown"
"278"	"52016"	56	"Legionellaceae"	""	""	"Legionellaceae"
"279"	"551369"	56	"Legionellaceae"	"Tatlockia"	""	"Tatlockia"
"280"	"691473"	56	""	""	""	"unknown"
"281"	"747821"	56	"Coxiellaceae"	""	""	"Coxiellaceae"
"282"	"208260"	55	"Coxiellaceae"	"Aquicella"	""	"Aquicella"
"283"	"4455778"	55	"Coxiellaceae"	""	""	"Coxiellaceae"
"284"	"226108"	54	"Legionellaceae"	""	""	"Legionellaceae"
"285"	"529296"	54	"Coxiellaceae"	"Aquicella"	""	"Aquicella"
"286"	"578288"	54	"Coxiellaceae"	""	""	"Coxiellaceae"
"287"	"990186"	54	"Coxiellaceae"	"Aquicella"	""	"Aquicella"
"288"	"237001"	53	"Coxiellaceae"	""	""	"Coxiellaceae"
"289"	"237253"	53	"Coxiellaceae"	""	""	"Coxiellaceae"
"290"	"242285"	53	"Coxiellaceae"	""	""	"Coxiellaceae"
"291"	"292187"	53	"Legionellaceae"	""	""	"Legionellaceae"
"292"	"3739088"	53	"Legionellaceae"	"Legionella"	""	"Legionella"
"293"	"4392743"	53	"Coxiellaceae"	""	""	"Coxiellaceae"
"294"	"869662"	53	""	""	""	"unknown"
"295"	"1137597"	52	"Coxiellaceae"	""	""	"Coxiellaceae"
"296"	"123281"	52	"Legionellaceae"	""	""	"Legionellaceae"
"297"	"585159"	52	"Legionellaceae"	""	""	"Legionellaceae"
"298"	"7915"	52	"Legionellaceae"	"Legionella"	""	"Legionella"
"299"	"855812"	52	"Legionellaceae"	"Legionella"	""	"Legionella"
"300"	"622861"	51	"Coxiellaceae"	"Rickettsiella"	""	"Rickettsiella"
"301"	"842422"	51	"Legionellaceae"	""	""	"Legionellaceae"
"302"	"4297774"	50	"Coxiellaceae"	""	""	"Coxiellaceae"
"303"	"515447"	50	"Coxiellaceae"	"Aquicella"	""	"Aquicella"
"304"	"549676"	50	"Legionellaceae"	""	""	"Legionellaceae"
"305"	"2139819"	49	"Legionellaceae"	""	""	"Legionellaceae"
"306"	"4459346"	49	"Coxiellaceae"	"Aquicella"	""	"Aquicella"
"307"	"804675"	49	"Coxiellaceae"	""	""	"Coxiellaceae"
"308"	"215917"	48	"Coxiellaceae"	""	""	"Coxiellaceae"
"309"	"244967"	48	"Legionellaceae"	"Legionella"	""	"Legionella"
"310"	"3198656"	48	"Legionellaceae"	""	""	"Legionellaceae"
"311"	"547615"	48	"Coxiellaceae"	""	""	"Coxiellaceae"
"312"	"150837"	47	"Legionellaceae"	""	""	"Legionellaceae"
"313"	"218751"	47	"Legionellaceae"	"Legionella"	""	"Legionella"
"314"	"230476"	47	"Coxiellaceae"	"Aquicella"	""	"Aquicella"
"315"	"2666514"	47	"Coxiellaceae"	"Aquicella"	""	"Aquicella"
"316"	"276694"	47	"Coxiellaceae"	""	""	"Coxiellaceae"
"317"	"4216839"	47	"Legionellaceae"	"Legionella"	""	"Legionella"
"318"	"575131"	47	""	""	""	"unknown"
"319"	"622842"	47	"Coxiellaceae"	""	""	"Coxiellaceae"
"320"	"1133579"	46	"Francisellaceae"	"Fangia"	"hongkongensis"	"Fangia hongkongensis"
"321"	"230249"	46	"Legionellaceae"	""	""	"Legionellaceae"
"322"	"357896"	46	"Coxiellaceae"	"Aquicella"	""	"Aquicella"
"323"	"541406"	46	"Coxiellaceae"	""	""	"Coxiellaceae"
"324"	"1128399"	45	"Coxiellaceae"	"Aquicella"	""	"Aquicella"
"325"	"221947"	45	"Legionellaceae"	""	""	"Legionellaceae"
"326"	"227017"	45	"Coxiellaceae"	"Aquicella"	""	"Aquicella"
"327"	"278735"	45	"Coxiellaceae"	"Aquicella"	""	"Aquicella"
"328"	"3085264"	45	"Francisellaceae"	""	""	"Francisellaceae"
"329"	"3479378"	45	"Legionellaceae"	"Legionella"	""	"Legionella"
"330"	"694372"	45	"Coxiellaceae"	""	""	"Coxiellaceae"
"331"	"806221"	45	"Legionellaceae"	"Legionella"	"nagasakiensis"	"L. nagasakiensis"
"332"	"1120485"	44	"Legionellaceae"	"Legionella"	""	"Legionella"
"333"	"246142"	44	"Coxiellaceae"	""	""	"Coxiellaceae"
"334"	"4343665"	43	"Legionellaceae"	""	""	"Legionellaceae"
"335"	"639449"	43	"Coxiellaceae"	""	""	"Coxiellaceae"
"336"	"658384"	43	"Coxiellaceae"	"Aquicella"	""	"Aquicella"
"337"	"843964"	43	"Legionellaceae"	""	""	"Legionellaceae"
"338"	"3042083"	42	"Coxiellaceae"	"Aquicella"	""	"Aquicella"
"339"	"783865"	42	"Coxiellaceae"	""	""	"Coxiellaceae"
"340"	"1694811"	41	"Legionellaceae"	""	""	"Legionellaceae"
"341"	"233794"	41	"Legionellaceae"	""	""	"Legionellaceae"
"342"	"535383"	41	"Coxiellaceae"	""	""	"Coxiellaceae"
"343"	"105678"	40	"Legionellaceae"	""	""	"Legionellaceae"
"344"	"228545"	40	"Legionellaceae"	"Legionella"	""	"Legionella"
"345"	"245537"	40	"Coxiellaceae"	"Aquicella"	""	"Aquicella"
"346"	"4316354"	40	"Coxiellaceae"	"Aquicella"	""	"Aquicella"
"347"	"570978"	40	""	""	""	"unknown"
"348"	"713085"	40	""	""	""	"unknown"
"349"	"7934"	40	"Legionellaceae"	"Legionella"	""	"Legionella"
"350"	"279116"	39	""	""	""	"unknown"
"351"	"4362183"	39	"Legionellaceae"	"Legionella"	""	"Legionella"
"352"	"534043"	39	"Coxiellaceae"	"Aquicella"	""	"Aquicella"
"353"	"7978"	39	"Legionellaceae"	"Legionella"	"adelaidensis"	"L. adelaidensis"
"354"	"310969"	38	"Coxiellaceae"	""	""	"Coxiellaceae"
"355"	"575883"	38	"Coxiellaceae"	""	""	"Coxiellaceae"
"356"	"766109"	38	"Coxiellaceae"	"Aquicella"	""	"Aquicella"
"357"	"7971"	38	"Legionellaceae"	"Legionella"	"nautarum"	"L. nautarum"
"358"	"830980"	38	""	""	""	"unknown"
"359"	"1119261"	37	"Legionellaceae"	""	""	"Legionellaceae"
"360"	"824387"	37	"Coxiellaceae"	""	""	"Coxiellaceae"
"361"	"889831"	37	"Legionellaceae"	""	""	"Legionellaceae"
"362"	"4455978"	36	"Coxiellaceae"	""	""	"Coxiellaceae"
"363"	"644797"	36	"Coxiellaceae"	""	""	"Coxiellaceae"
"364"	"275249"	35	"Coxiellaceae"	""	""	"Coxiellaceae"
"365"	"4363095"	35	"Legionellaceae"	""	""	"Legionellaceae"
"366"	"592165"	35	"Legionellaceae"	""	""	"Legionellaceae"
"367"	"673812"	35	"Coxiellaceae"	""	""	"Coxiellaceae"
"368"	"1665697"	34	"Coxiellaceae"	""	""	"Coxiellaceae"
"369"	"263511"	34	"Coxiellaceae"	""	""	"Coxiellaceae"
"370"	"4393261"	34	""	""	""	"unknown"
"371"	"4482366"	34	"Legionellaceae"	"Tatlockia"	"micdadei"	"Tatlockia micdadei"
"372"	"700829"	34	"Legionellaceae"	""	""	"Legionellaceae"
"373"	"824653"	34	"Legionellaceae"	""	""	"Legionellaceae"
"374"	"1115170"	33	"Coxiellaceae"	""	""	"Coxiellaceae"
"375"	"227947"	33	"Coxiellaceae"	""	""	"Coxiellaceae"
"376"	"230705"	33	"Legionellaceae"	""	""	"Legionellaceae"
"377"	"3606083"	33	"Legionellaceae"	"Tatlockia"	""	"Tatlockia"
"378"	"568023"	33	""	""	""	"unknown"
"379"	"1988024"	32	""	""	""	"unknown"
"380"	"225991"	32	"Coxiellaceae"	""	""	"Coxiellaceae"
"381"	"257129"	32	""	""	""	"unknown"
"382"	"4327924"	32	"Coxiellaceae"	""	""	"Coxiellaceae"
"383"	"1056244"	31	"Coxiellaceae"	"Aquicella"	""	"Aquicella"
"384"	"154082"	31	"Coxiellaceae"	""	""	"Coxiellaceae"
"385"	"156557"	31	"Coxiellaceae"	""	""	"Coxiellaceae"
"386"	"241874"	31	"Coxiellaceae"	""	""	"Coxiellaceae"
"387"	"267408"	31	"Coxiellaceae"	""	""	"Coxiellaceae"
"388"	"4311868"	31	"Coxiellaceae"	""	""	"Coxiellaceae"
"389"	"570940"	31	"Coxiellaceae"	""	""	"Coxiellaceae"
"390"	"681590"	31	"Legionellaceae"	"Legionella"	"londiniensis"	"L. londiniensis"
"391"	"7912"	31	"Legionellaceae"	"Legionella"	""	"Legionella"
"392"	"19290"	30	"Coxiellaceae"	""	""	"Coxiellaceae"
"393"	"568157"	30	""	""	""	"unknown"
"394"	"7722"	30	"Francisellaceae"	"Francisella"	""	"Francisella"
"395"	"948499"	30	""	""	""	"unknown"
"396"	"3744300"	29	"Coxiellaceae"	""	""	"Coxiellaceae"
"397"	"4452864"	29	"Coxiellaceae"	"Aquicella"	""	"Aquicella"
"398"	"643163"	29	"Coxiellaceae"	""	""	"Coxiellaceae"
"399"	"150240"	28	"Legionellaceae"	""	""	"Legionellaceae"
"400"	"263538"	28	"Coxiellaceae"	""	""	"Coxiellaceae"
"401"	"266502"	28	"Coxiellaceae"	""	""	"Coxiellaceae"
"402"	"269599"	28	"Coxiellaceae"	""	""	"Coxiellaceae"
"403"	"4318297"	28	""	""	""	"unknown"
"404"	"4350043"	28	"Coxiellaceae"	""	""	"Coxiellaceae"
"405"	"4422660"	28	"Coxiellaceae"	""	""	"Coxiellaceae"
"406"	"4482584"	28	"Coxiellaceae"	""	""	"Coxiellaceae"
"407"	"722743"	28	""	""	""	"unknown"
"408"	"103683"	27	"Coxiellaceae"	"Coxiella"	""	"Coxiella"
"409"	"1147186"	27	""	""	""	"unknown"
"410"	"131185"	27	"Coxiellaceae"	"Aquicella"	""	"Aquicella"
"411"	"140557"	27	""	""	""	"unknown"
"412"	"322686"	27	""	""	""	"unknown"
"413"	"334554"	27	"Coxiellaceae"	""	""	"Coxiellaceae"
"414"	"348858"	27	"Coxiellaceae"	""	""	"Coxiellaceae"
"415"	"4323106"	27	"Coxiellaceae"	""	""	"Coxiellaceae"
"416"	"4431353"	27	"Legionellaceae"	""	""	"Legionellaceae"
"417"	"446223"	27	"Coxiellaceae"	"Aquicella"	""	"Aquicella"
"418"	"590656"	27	"Legionellaceae"	""	""	"Legionellaceae"
"419"	"1920758"	26	"Coxiellaceae"	""	""	"Coxiellaceae"
"420"	"254722"	26	"Coxiellaceae"	""	""	"Coxiellaceae"
"421"	"305235"	26	"Legionellaceae"	""	""	"Legionellaceae"
"422"	"323858"	26	"Coxiellaceae"	""	""	"Coxiellaceae"
"423"	"534568"	26	"Coxiellaceae"	""	""	"Coxiellaceae"
"424"	"540706"	26	"Coxiellaceae"	""	""	"Coxiellaceae"
"425"	"7920"	26	"Legionellaceae"	"Legionella"	""	"Legionella"
"426"	"232046"	25	"Coxiellaceae"	"Aquicella"	""	"Aquicella"
"427"	"327533"	25	""	""	""	"unknown"
"428"	"4295152"	25	"Coxiellaceae"	""	""	"Coxiellaceae"
"429"	"4458878"	25	"Coxiellaceae"	""	""	"Coxiellaceae"
"430"	"559916"	25	"Coxiellaceae"	""	""	"Coxiellaceae"
"431"	"956545"	25	"Coxiellaceae"	""	""	"Coxiellaceae"
"432"	"1126249"	24	""	""	""	"unknown"
"433"	"235573"	24	""	""	""	"unknown"
"434"	"792668"	24	"Legionellaceae"	""	""	"Legionellaceae"
"435"	"809944"	24	"Coxiellaceae"	""	""	"Coxiellaceae"
"436"	"135830"	23	"Coxiellaceae"	"Aquicella"	""	"Aquicella"
"437"	"154202"	23	"Legionellaceae"	"Legionella"	""	"Legionella"
"438"	"173611"	23	"Coxiellaceae"	""	""	"Coxiellaceae"
"439"	"253232"	23	"Coxiellaceae"	""	""	"Coxiellaceae"
"440"	"254854"	23	"Coxiellaceae"	"Coxiella"	""	"Coxiella"
"441"	"4042102"	23	""	""	""	"unknown"
"442"	"663822"	23	"Coxiellaceae"	"Aquicella"	""	"Aquicella"
"443"	"749753"	23	"Coxiellaceae"	""	""	"Coxiellaceae"
"444"	"1105294"	22	"Coxiellaceae"	"Aquicella"	""	"Aquicella"
"445"	"141224"	22	"Legionellaceae"	""	""	"Legionellaceae"
"446"	"229454"	22	"Coxiellaceae"	""	""	"Coxiellaceae"
"447"	"238267"	22	"Coxiellaceae"	""	""	"Coxiellaceae"
"448"	"331783"	22	""	""	""	"unknown"
"449"	"4350121"	22	"Coxiellaceae"	""	""	"Coxiellaceae"
"450"	"4399692"	22	"Legionellaceae"	"Legionella"	""	"Legionella"
"451"	"4409768"	22	"Coxiellaceae"	""	""	"Coxiellaceae"
"452"	"695627"	22	"Coxiellaceae"	""	""	"Coxiellaceae"
"453"	"797578"	22	""	""	""	"unknown"
"454"	"1111561"	21	""	""	""	"unknown"
"455"	"1131243"	21	"Coxiellaceae"	""	""	"Coxiellaceae"
"456"	"126944"	21	""	""	""	"unknown"
"457"	"2894126"	21	"Coxiellaceae"	""	""	"Coxiellaceae"
"458"	"3542602"	21	"Legionellaceae"	""	""	"Legionellaceae"
"459"	"4076076"	21	"Coxiellaceae"	""	""	"Coxiellaceae"
"460"	"4365866"	21	"Coxiellaceae"	""	""	"Coxiellaceae"
"461"	"4389775"	21	"Coxiellaceae"	"Aquicella"	""	"Aquicella"
"462"	"611404"	21	""	""	""	"unknown"
"463"	"73506"	21	"Coxiellaceae"	"Rickettsiella"	""	"Rickettsiella"
"464"	"1128818"	20	""	""	""	"unknown"
"465"	"4428547"	20	"Legionellaceae"	""	""	"Legionellaceae"
"466"	"4467742"	20	"Coxiellaceae"	"Aquicella"	""	"Aquicella"
"467"	"539237"	20	"Coxiellaceae"	""	""	"Coxiellaceae"
"468"	"744094"	20	"Coxiellaceae"	""	""	"Coxiellaceae"
"469"	"7936"	20	"Legionellaceae"	"Legionella"	""	"Legionella"
"470"	"7976"	20	"Legionellaceae"	"Legionella"	"quinlivanii"	"L. quinlivanii"
"471"	"798562"	20	"Legionellaceae"	"Legionella"	""	"Legionella"
"472"	"799971"	20	"Legionellaceae"	""	""	"Legionellaceae"
"473"	"808438"	20	""	""	""	"unknown"
"474"	"243486"	19	"Legionellaceae"	""	""	"Legionellaceae"
"475"	"305098"	19	"Coxiellaceae"	""	""	"Coxiellaceae"
"476"	"4338582"	19	"Coxiellaceae"	"Aquicella"	""	"Aquicella"
"477"	"4431167"	19	"Legionellaceae"	"Legionella"	"impletisoli"	"L. impletisoli"
"478"	"814654"	19	"Coxiellaceae"	""	""	"Coxiellaceae"
"479"	"822626"	19	"Coxiellaceae"	"Aquicella"	""	"Aquicella"
"480"	"1129723"	18	"Francisellaceae"	"Caedibacter"	"taeniospiralis"	"Caedibacter taeniospiralis"
"481"	"229854"	18	"Legionellaceae"	"Legionella"	""	"Legionella"
"482"	"269523"	18	""	""	""	"unknown"
"483"	"299968"	18	"Coxiellaceae"	""	""	"Coxiellaceae"
"484"	"3688427"	18	"Coxiellaceae"	""	""	"Coxiellaceae"
"485"	"3992846"	18	"Coxiellaceae"	""	""	"Coxiellaceae"
"486"	"4315705"	18	"Legionellaceae"	""	""	"Legionellaceae"
"487"	"4399758"	18	"Coxiellaceae"	""	""	"Coxiellaceae"
"488"	"555343"	18	"Legionellaceae"	""	""	"Legionellaceae"
"489"	"555435"	18	"Legionellaceae"	""	""	"Legionellaceae"
"490"	"559034"	18	""	""	""	"unknown"
"491"	"590087"	18	"Legionellaceae"	""	""	"Legionellaceae"
"492"	"660688"	18	"Legionellaceae"	"Legionella"	"taurinensis"	"L. taurinensis"
"493"	"8001"	18	"Legionellaceae"	"Legionella"	"rubrilucens"	"L. rubrilucens"
"494"	"811722"	18	""	""	""	"unknown"
"495"	"229650"	17	"Coxiellaceae"	""	""	"Coxiellaceae"
"496"	"3321970"	17	"Coxiellaceae"	""	""	"Coxiellaceae"
"497"	"4337253"	17	"Legionellaceae"	"Legionella"	""	"Legionella"
"498"	"4381263"	17	"Coxiellaceae"	"Aquicella"	""	"Aquicella"
"499"	"4479940"	17	"Coxiellaceae"	""	""	"Coxiellaceae"
"500"	"7972"	17	"Legionellaceae"	"Legionella"	"fairfieldensis"	"L. fairfieldensis"
"501"	"968165"	17	"Coxiellaceae"	""	""	"Coxiellaceae"
"502"	"150676"	16	"Coxiellaceae"	""	""	"Coxiellaceae"
"503"	"153746"	16	""	""	""	"unknown"
"504"	"200519"	16	""	""	""	"unknown"
"505"	"201122"	16	"Coxiellaceae"	""	""	"Coxiellaceae"
"506"	"216743"	16	"Coxiellaceae"	""	""	"Coxiellaceae"
"507"	"297505"	16	"Coxiellaceae"	""	""	"Coxiellaceae"
"508"	"4357516"	16	"Legionellaceae"	""	""	"Legionellaceae"
"509"	"4369880"	16	"Coxiellaceae"	""	""	"Coxiellaceae"
"510"	"52529"	16	"Coxiellaceae"	"Aquicella"	""	"Aquicella"
"511"	"543696"	16	"Legionellaceae"	""	""	"Legionellaceae"
"512"	"170442"	15	"Coxiellaceae"	""	""	"Coxiellaceae"
"513"	"256793"	15	"Legionellaceae"	""	""	"Legionellaceae"
"514"	"314162"	15	"Coxiellaceae"	""	""	"Coxiellaceae"
"515"	"533660"	15	""	""	""	"unknown"
"516"	"55626"	15	"Coxiellaceae"	""	""	"Coxiellaceae"
"517"	"560495"	15	"Legionellaceae"	""	""	"Legionellaceae"
"518"	"581500"	15	""	""	""	"unknown"
"519"	"163406"	14	"Legionellaceae"	"Legionella"	""	"Legionella"
"520"	"238353"	14	"Coxiellaceae"	""	""	"Coxiellaceae"
"521"	"241611"	14	""	""	""	"unknown"
"522"	"261085"	14	""	""	""	"unknown"
"523"	"355208"	14	"Coxiellaceae"	""	""	"Coxiellaceae"
"524"	"4285488"	14	"Coxiellaceae"	""	""	"Coxiellaceae"
"525"	"4342460"	14	"Coxiellaceae"	""	""	"Coxiellaceae"
"526"	"4406783"	14	"Coxiellaceae"	""	""	"Coxiellaceae"
"527"	"4454080"	14	"Legionellaceae"	""	""	"Legionellaceae"
"528"	"544328"	14	""	""	""	"unknown"
"529"	"566914"	14	"Coxiellaceae"	""	""	"Coxiellaceae"
"530"	"642096"	14	""	""	""	"unknown"
"531"	"789097"	14	"Coxiellaceae"	""	""	"Coxiellaceae"
"532"	"843383"	14	"Legionellaceae"	""	""	"Legionellaceae"
"533"	"1106599"	13	"Coxiellaceae"	""	""	"Coxiellaceae"
"534"	"1130053"	13	"Legionellaceae"	"Legionella"	""	"Legionella"
"535"	"1148089"	13	"Coxiellaceae"	""	""	"Coxiellaceae"
"536"	"136759"	13	"Coxiellaceae"	""	""	"Coxiellaceae"
"537"	"2114513"	13	"Coxiellaceae"	""	""	"Coxiellaceae"
"538"	"269534"	13	"Coxiellaceae"	""	""	"Coxiellaceae"
"539"	"2760487"	13	""	""	""	"unknown"
"540"	"354600"	13	"Legionellaceae"	""	""	"Legionellaceae"
"541"	"4335717"	13	"Coxiellaceae"	""	""	"Coxiellaceae"
"542"	"4359886"	13	""	""	""	"unknown"
"543"	"530692"	13	"Coxiellaceae"	""	""	"Coxiellaceae"
"544"	"111025"	12	""	""	""	"unknown"
"545"	"1147725"	12	"Coxiellaceae"	""	""	"Coxiellaceae"
"546"	"207732"	12	"Coxiellaceae"	""	""	"Coxiellaceae"
"547"	"217655"	12	"Coxiellaceae"	""	""	"Coxiellaceae"
"548"	"2344020"	12	"Legionellaceae"	""	""	"Legionellaceae"
"549"	"4321983"	12	"Coxiellaceae"	""	""	"Coxiellaceae"
"550"	"4330384"	12	"Coxiellaceae"	""	""	"Coxiellaceae"
"551"	"4338491"	12	"Legionellaceae"	""	""	"Legionellaceae"
"552"	"4349343"	12	"Legionellaceae"	""	""	"Legionellaceae"
"553"	"4363099"	12	"Legionellaceae"	""	""	"Legionellaceae"
"554"	"4456553"	12	"Coxiellaceae"	""	""	"Coxiellaceae"
"555"	"516879"	12	"Coxiellaceae"	""	""	"Coxiellaceae"
"556"	"592569"	12	"Coxiellaceae"	"Aquicella"	""	"Aquicella"
"557"	"686873"	12	"Legionellaceae"	""	""	"Legionellaceae"
"558"	"89702"	12	"Legionellaceae"	"Tatlockia"	""	"Tatlockia"
"559"	"1147332"	11	"Coxiellaceae"	""	""	"Coxiellaceae"
"560"	"137507"	11	"Coxiellaceae"	""	""	"Coxiellaceae"
"561"	"147162"	11	"Coxiellaceae"	""	""	"Coxiellaceae"
"562"	"166058"	11	"Legionellaceae"	""	""	"Legionellaceae"
"563"	"231343"	11	"Coxiellaceae"	""	""	"Coxiellaceae"
"564"	"240988"	11	"Coxiellaceae"	""	""	"Coxiellaceae"
"565"	"266321"	11	"Coxiellaceae"	""	""	"Coxiellaceae"
"566"	"344557"	11	""	""	""	"unknown"
"567"	"3451045"	11	"Legionellaceae"	""	""	"Legionellaceae"
"568"	"3479384"	11	"Legionellaceae"	""	""	"Legionellaceae"
"569"	"4341509"	11	"Legionellaceae"	""	""	"Legionellaceae"
"570"	"4351060"	11	"Legionellaceae"	""	""	"Legionellaceae"
"571"	"4378985"	11	"Legionellaceae"	""	""	"Legionellaceae"
"572"	"463932"	11	"Legionellaceae"	"Legionella"	""	"Legionella"
"573"	"578973"	11	"Coxiellaceae"	""	""	"Coxiellaceae"
"574"	"7999"	11	"Legionellaceae"	"Legionella"	"feeleii"	"L. feeleii"
"575"	"103985"	10	"Coxiellaceae"	""	""	"Coxiellaceae"
"576"	"1122884"	10	"Coxiellaceae"	""	""	"Coxiellaceae"
"577"	"191570"	10	"Legionellaceae"	"Legionella"	"jordanis"	"L. jordanis"
"578"	"203694"	10	"Coxiellaceae"	""	""	"Coxiellaceae"
"579"	"4427384"	10	"Coxiellaceae"	""	""	"Coxiellaceae"
"580"	"4428137"	10	""	""	""	"unknown"
"581"	"4433171"	10	"Coxiellaceae"	"Aquicella"	""	"Aquicella"
"582"	"4477963"	10	"Legionellaceae"	""	""	"Legionellaceae"
"583"	"555799"	10	"Coxiellaceae"	""	""	"Coxiellaceae"
"584"	"590181"	10	""	""	""	"unknown"
"585"	"64661"	10	"Legionellaceae"	""	""	"Legionellaceae"
"586"	"8002"	10	"Legionellaceae"	"Legionella"	"rubrilucens"	"L. rubrilucens"
"587"	"8026"	10	"Coxiellaceae"	""	""	"Coxiellaceae"
"588"	"834022"	10	""	""	""	"unknown"
"589"	"146337"	9	"Legionellaceae"	""	""	"Legionellaceae"
"590"	"157050"	9	"Coxiellaceae"	"Aquicella"	""	"Aquicella"
"591"	"212023"	9	""	""	""	"unknown"
"592"	"256878"	9	""	""	""	"unknown"
"593"	"267865"	9	"Legionellaceae"	""	""	"Legionellaceae"
"594"	"268607"	9	"Coxiellaceae"	""	""	"Coxiellaceae"
"595"	"359663"	9	"Coxiellaceae"	"Aquicella"	""	"Aquicella"
"596"	"4298842"	9	"Legionellaceae"	""	""	"Legionellaceae"
"597"	"4460851"	9	"Coxiellaceae"	""	""	"Coxiellaceae"
"598"	"562570"	9	"Coxiellaceae"	""	""	"Coxiellaceae"
"599"	"8015"	9	"Coxiellaceae"	"Coxiella"	""	"Coxiella"
"600"	"824679"	9	""	""	""	"unknown"
"601"	"145682"	8	"Coxiellaceae"	""	""	"Coxiellaceae"
"602"	"2311150"	8	"Legionellaceae"	"Tatlockia"	""	"Tatlockia"
"603"	"243416"	8	"Coxiellaceae"	""	""	"Coxiellaceae"
"604"	"3029269"	8	"Legionellaceae"	""	""	"Legionellaceae"
"605"	"4310801"	8	"Legionellaceae"	""	""	"Legionellaceae"
"606"	"4332650"	8	"Legionellaceae"	""	""	"Legionellaceae"
"607"	"4334174"	8	"Coxiellaceae"	""	""	"Coxiellaceae"
"608"	"4346480"	8	"Legionellaceae"	""	""	"Legionellaceae"
"609"	"4433017"	8	""	""	""	"unknown"
"610"	"541879"	8	"Coxiellaceae"	""	""	"Coxiellaceae"
"611"	"542985"	8	"Legionellaceae"	""	""	"Legionellaceae"
"612"	"580936"	8	"Coxiellaceae"	""	""	"Coxiellaceae"
"613"	"631809"	8	"Coxiellaceae"	""	""	"Coxiellaceae"
"614"	"648026"	8	"Legionellaceae"	""	""	"Legionellaceae"
"615"	"657470"	8	"Coxiellaceae"	""	""	"Coxiellaceae"
"616"	"746331"	8	"Legionellaceae"	"Tatlockia"	""	"Tatlockia"
"617"	"833898"	8	"Francisellaceae"	""	""	"Francisellaceae"
"618"	"100883"	7	"Legionellaceae"	""	""	"Legionellaceae"
"619"	"1066660"	7	"Coxiellaceae"	""	""	"Coxiellaceae"
"620"	"261534"	7	"Legionellaceae"	""	""	"Legionellaceae"
"621"	"269214"	7	"Coxiellaceae"	""	""	"Coxiellaceae"
"622"	"4255687"	7	""	""	""	"unknown"
"623"	"4342060"	7	"Coxiellaceae"	""	""	"Coxiellaceae"
"624"	"47939"	7	"Coxiellaceae"	""	""	"Coxiellaceae"
"625"	"557984"	7	"Coxiellaceae"	""	""	"Coxiellaceae"
"626"	"575033"	7	"Coxiellaceae"	""	""	"Coxiellaceae"
"627"	"587859"	7	""	""	""	"unknown"
"628"	"588296"	7	"Coxiellaceae"	""	""	"Coxiellaceae"
"629"	"67844"	7	"Coxiellaceae"	""	""	"Coxiellaceae"
"630"	"758836"	7	"Legionellaceae"	"Tatlockia"	""	"Tatlockia"
"631"	"7954"	7	"Legionellaceae"	"Legionella"	""	"Legionella"
"632"	"820439"	7	"Legionellaceae"	""	""	"Legionellaceae"
"633"	"1132104"	6	"Coxiellaceae"	"Aquicella"	""	"Aquicella"
"634"	"1136605"	6	"Coxiellaceae"	""	""	"Coxiellaceae"
"635"	"132615"	6	"Coxiellaceae"	""	""	"Coxiellaceae"
"636"	"154083"	6	"Coxiellaceae"	""	""	"Coxiellaceae"
"637"	"161155"	6	""	""	""	"unknown"
"638"	"1625694"	6	""	""	""	"unknown"
"639"	"2060315"	6	"Coxiellaceae"	""	""	"Coxiellaceae"
"640"	"228047"	6	"Coxiellaceae"	""	""	"Coxiellaceae"
"641"	"229951"	6	"Coxiellaceae"	""	""	"Coxiellaceae"
"642"	"231849"	6	"Legionellaceae"	""	""	"Legionellaceae"
"643"	"240420"	6	"Coxiellaceae"	""	""	"Coxiellaceae"
"644"	"244537"	6	"Coxiellaceae"	""	""	"Coxiellaceae"
"645"	"2718033"	6	""	""	""	"unknown"
"646"	"3246136"	6	"Legionellaceae"	""	""	"Legionellaceae"
"647"	"338426"	6	"Coxiellaceae"	""	""	"Coxiellaceae"
"648"	"3593081"	6	""	""	""	"unknown"
"649"	"4312401"	6	"Coxiellaceae"	"Aquicella"	""	"Aquicella"
"650"	"4397077"	6	"Coxiellaceae"	""	""	"Coxiellaceae"
"651"	"4402139"	6	"Legionellaceae"	""	""	"Legionellaceae"
"652"	"4481670"	6	"Legionellaceae"	""	""	"Legionellaceae"
"653"	"558342"	6	""	""	""	"unknown"
"654"	"593276"	6	"Coxiellaceae"	""	""	"Coxiellaceae"
"655"	"79079"	6	"Coxiellaceae"	""	""	"Coxiellaceae"
"656"	"8012"	6	"Legionellaceae"	"Legionella"	"jamestowniensis"	"L. jamestowniensis"
"657"	"1110047"	5	"Francisellaceae"	""	""	"Francisellaceae"
"658"	"1112599"	5	""	""	""	"unknown"
"659"	"1130364"	5	"Coxiellaceae"	""	""	"Coxiellaceae"
"660"	"149907"	5	"Coxiellaceae"	"Coxiella"	""	"Coxiella"
"661"	"1659486"	5	"Legionellaceae"	""	""	"Legionellaceae"
"662"	"1895960"	5	"Legionellaceae"	""	""	"Legionellaceae"
"663"	"2144521"	5	""	""	""	"unknown"
"664"	"249080"	5	"Coxiellaceae"	""	""	"Coxiellaceae"
"665"	"2656929"	5	"Legionellaceae"	""	""	"Legionellaceae"
"666"	"311177"	5	""	""	""	"unknown"
"667"	"3836603"	5	"Legionellaceae"	""	""	"Legionellaceae"
"668"	"4362568"	5	"Legionellaceae"	"Tatlockia"	""	"Tatlockia"
"669"	"4399899"	5	"Legionellaceae"	""	""	"Legionellaceae"
"670"	"4477968"	5	"Legionellaceae"	""	""	"Legionellaceae"
"671"	"500093"	5	"Legionellaceae"	"Tatlockia"	""	"Tatlockia"
"672"	"535071"	5	"Francisellaceae"	"Francisella"	"cantonensis"	"Francisella cantonensis"
"673"	"550690"	5	"Coxiellaceae"	""	""	"Coxiellaceae"
"674"	"657487"	5	"Coxiellaceae"	""	""	"Coxiellaceae"
"675"	"804315"	5	""	""	""	"unknown"
"676"	"234971"	4	""	""	""	"unknown"
"677"	"249113"	4	"Legionellaceae"	""	""	"Legionellaceae"
"678"	"263683"	4	"Coxiellaceae"	""	""	"Coxiellaceae"
"679"	"3222175"	4	"Coxiellaceae"	""	""	"Coxiellaceae"
"680"	"340676"	4	"Coxiellaceae"	""	""	"Coxiellaceae"
"681"	"3423656"	4	"Coxiellaceae"	""	""	"Coxiellaceae"
"682"	"343908"	4	"Legionellaceae"	""	""	"Legionellaceae"
"683"	"4328898"	4	"Legionellaceae"	""	""	"Legionellaceae"
"684"	"4345131"	4	"Coxiellaceae"	""	""	"Coxiellaceae"
"685"	"4368027"	4	"Legionellaceae"	""	""	"Legionellaceae"
"686"	"4408163"	4	"Coxiellaceae"	"Aquicella"	""	"Aquicella"
"687"	"4421202"	4	"Coxiellaceae"	""	""	"Coxiellaceae"
"688"	"4443725"	4	"Coxiellaceae"	""	""	"Coxiellaceae"
"689"	"511554"	4	""	""	""	"unknown"
"690"	"542561"	4	""	""	""	"unknown"
"691"	"544555"	4	""	""	""	"unknown"
"692"	"558294"	4	""	""	""	"unknown"
"693"	"586089"	4	""	""	""	"unknown"
"694"	"611320"	4	"Coxiellaceae"	""	""	"Coxiellaceae"
"695"	"666179"	4	""	""	""	"unknown"
"696"	"805799"	4	"Coxiellaceae"	""	""	"Coxiellaceae"
"697"	"817154"	4	"Coxiellaceae"	""	""	"Coxiellaceae"
"698"	"825330"	4	"Coxiellaceae"	"Aquicella"	""	"Aquicella"
"699"	"825619"	4	"Coxiellaceae"	""	""	"Coxiellaceae"
"700"	"850600"	4	"Legionellaceae"	""	""	"Legionellaceae"
"701"	"952794"	4	"Legionellaceae"	""	""	"Legionellaceae"
"702"	"980281"	4	"Coxiellaceae"	"Aquicella"	""	"Aquicella"
"703"	"1123818"	3	"Coxiellaceae"	""	""	"Coxiellaceae"
"704"	"132148"	3	"Coxiellaceae"	""	""	"Coxiellaceae"
"705"	"156997"	3	"Coxiellaceae"	""	""	"Coxiellaceae"
"706"	"2209542"	3	"Coxiellaceae"	""	""	"Coxiellaceae"
"707"	"221169"	3	""	""	""	"unknown"
"708"	"240029"	3	"Legionellaceae"	""	""	"Legionellaceae"
"709"	"265658"	3	"Coxiellaceae"	""	""	"Coxiellaceae"
"710"	"268518"	3	"Coxiellaceae"	""	""	"Coxiellaceae"
"711"	"271770"	3	""	""	""	"unknown"
"712"	"276006"	3	"Coxiellaceae"	""	""	"Coxiellaceae"
"713"	"301018"	3	"Legionellaceae"	""	""	"Legionellaceae"
"714"	"4010840"	3	"Coxiellaceae"	""	""	"Coxiellaceae"
"715"	"4014251"	3	""	""	""	"unknown"
"716"	"4307632"	3	""	""	""	"unknown"
"717"	"4320934"	3	"Legionellaceae"	"Tatlockia"	""	"Tatlockia"
"718"	"4381896"	3	"Coxiellaceae"	""	""	"Coxiellaceae"
"719"	"4386197"	3	"Coxiellaceae"	""	""	"Coxiellaceae"
"720"	"4418201"	3	"Coxiellaceae"	""	""	"Coxiellaceae"
"721"	"4425705"	3	"Coxiellaceae"	""	""	"Coxiellaceae"
"722"	"4467683"	3	""	""	""	"unknown"
"723"	"547841"	3	"Francisellaceae"	""	""	"Francisellaceae"
"724"	"550028"	3	"Coxiellaceae"	""	""	"Coxiellaceae"
"725"	"555807"	3	"Legionellaceae"	""	""	"Legionellaceae"
"726"	"569991"	3	"Coxiellaceae"	""	""	"Coxiellaceae"
"727"	"588219"	3	"Coxiellaceae"	""	""	"Coxiellaceae"
"728"	"646612"	3	"Coxiellaceae"	"Rickettsiella"	""	"Rickettsiella"
"729"	"730584"	3	"Coxiellaceae"	""	""	"Coxiellaceae"
"730"	"745611"	3	"Coxiellaceae"	""	""	"Coxiellaceae"
"731"	"811032"	3	""	""	""	"unknown"
"732"	"1113236"	2	"Coxiellaceae"	""	""	"Coxiellaceae"
"733"	"1120994"	2	"Coxiellaceae"	""	""	"Coxiellaceae"
"734"	"1148338"	2	"Legionellaceae"	""	""	"Legionellaceae"
"735"	"1675224"	2	"Coxiellaceae"	""	""	"Coxiellaceae"
"736"	"173408"	2	"Francisellaceae"	""	""	"Francisellaceae"
"737"	"200671"	2	""	""	""	"unknown"
"738"	"200745"	2	"Francisellaceae"	""	""	"Francisellaceae"
"739"	"2247274"	2	"Coxiellaceae"	""	""	"Coxiellaceae"
"740"	"2392775"	2	"Coxiellaceae"	""	""	"Coxiellaceae"
"741"	"2635885"	2	"Coxiellaceae"	""	""	"Coxiellaceae"
"742"	"273582"	2	""	""	""	"unknown"
"743"	"288017"	2	"Coxiellaceae"	""	""	"Coxiellaceae"
"744"	"288159"	2	"Coxiellaceae"	""	""	"Coxiellaceae"
"745"	"3022229"	2	"Coxiellaceae"	""	""	"Coxiellaceae"
"746"	"308962"	2	"Legionellaceae"	"Tatlockia"	""	"Tatlockia"
"747"	"3116097"	2	""	""	""	"unknown"
"748"	"312009"	2	"Francisellaceae"	""	""	"Francisellaceae"
"749"	"336704"	2	"Coxiellaceae"	""	""	"Coxiellaceae"
"750"	"353821"	2	"Legionellaceae"	""	""	"Legionellaceae"
"751"	"4303088"	2	""	""	""	"unknown"
"752"	"4306745"	2	"Coxiellaceae"	"Coxiella"	""	"Coxiella"
"753"	"4328197"	2	"Legionellaceae"	"Tatlockia"	""	"Tatlockia"
"754"	"4342061"	2	"Coxiellaceae"	""	""	"Coxiellaceae"
"755"	"4342063"	2	""	""	""	"unknown"
"756"	"4367991"	2	"Legionellaceae"	""	""	"Legionellaceae"
"757"	"4377173"	2	"Coxiellaceae"	""	""	"Coxiellaceae"
"758"	"4384327"	2	"Coxiellaceae"	"Aquicella"	""	"Aquicella"
"759"	"4396131"	2	"Coxiellaceae"	""	""	"Coxiellaceae"
"760"	"4405397"	2	""	""	""	"unknown"
"761"	"4410713"	2	"Legionellaceae"	""	""	"Legionellaceae"
"762"	"4425805"	2	"Coxiellaceae"	"Coxiella"	""	"Coxiella"
"763"	"4456771"	2	"Coxiellaceae"	""	""	"Coxiellaceae"
"764"	"4482948"	2	"Francisellaceae"	"Nebulobacter"	"yamunensis"	"Nebulobacter yamunensis"
"765"	"554366"	2	"Legionellaceae"	""	""	"Legionellaceae"
"766"	"708765"	2	""	""	""	"unknown"
"767"	"8011"	2	""	""	""	"unknown"
"768"	"811177"	2	""	""	""	"unknown"
"769"	"142742"	1	"Coxiellaceae"	""	""	"Coxiellaceae"
"770"	"1858897"	1	"Legionellaceae"	""	""	"Legionellaceae"
"771"	"2355748"	1	"Coxiellaceae"	""	""	"Coxiellaceae"
"772"	"242175"	1	"Coxiellaceae"	""	""	"Coxiellaceae"
"773"	"243654"	1	"Coxiellaceae"	""	""	"Coxiellaceae"
"774"	"258362"	1	""	""	""	"unknown"
"775"	"261068"	1	""	""	""	"unknown"
"776"	"267559"	1	"Legionellaceae"	""	""	"Legionellaceae"
"777"	"273083"	1	"Coxiellaceae"	""	""	"Coxiellaceae"
"778"	"273189"	1	"Coxiellaceae"	""	""	"Coxiellaceae"
"779"	"3176741"	1	""	""	""	"unknown"
"780"	"323152"	1	"Francisellaceae"	"Francisella"	""	"Francisella"
"781"	"3620483"	1	"Legionellaceae"	""	""	"Legionellaceae"
"782"	"3850843"	1	"Coxiellaceae"	""	""	"Coxiellaceae"
"783"	"4254473"	1	"Coxiellaceae"	""	""	"Coxiellaceae"
"784"	"4298181"	1	"Francisellaceae"	""	""	"Francisellaceae"
"785"	"431084"	1	"Legionellaceae"	"Tatlockia"	""	"Tatlockia"
"786"	"4331964"	1	"Coxiellaceae"	""	""	"Coxiellaceae"
"787"	"4336840"	1	"Legionellaceae"	""	""	"Legionellaceae"
"788"	"4342057"	1	"Coxiellaceae"	""	""	"Coxiellaceae"
"789"	"4389660"	1	"Legionellaceae"	""	""	"Legionellaceae"
"790"	"4407245"	1	"Legionellaceae"	""	""	"Legionellaceae"
"791"	"4422826"	1	"Coxiellaceae"	"Aquicella"	""	"Aquicella"
"792"	"4443964"	1	"Coxiellaceae"	""	""	"Coxiellaceae"
"793"	"4463951"	1	"Francisellaceae"	""	""	"Francisellaceae"
"794"	"4466628"	1	"Coxiellaceae"	""	""	"Coxiellaceae"
"795"	"4477964"	1	"Legionellaceae"	""	""	"Legionellaceae"
"796"	"509759"	1	"Coxiellaceae"	""	""	"Coxiellaceae"
"797"	"545609"	1	"Coxiellaceae"	""	""	"Coxiellaceae"
"798"	"550577"	1	"Coxiellaceae"	""	""	"Coxiellaceae"
"799"	"656729"	1	""	""	""	"unknown"
"800"	"7973"	1	"Legionellaceae"	"Legionella"	"lansingensis"	"L. lansingensis"
"801"	"797716"	1	"Coxiellaceae"	""	""	"Coxiellaceae"
"802"	"7980"	1	"Legionellaceae"	"Legionella"	"oakridgensis"	"L. oakridgensis"
"803"	"8010"	1	"Legionellaceae"	"Legionella"	"jamestowniensis"	"L. jamestowniensis"
"804"	"837564"	1	""	""	""	"unknown"
